{
  "version": "1.0.0-*",
  "userSecretsId": "aspnet5-MyWebApp-13452aa6-3903-403c-ac93-20f4e24bf479",
  "compilationOptions": {
    "emitEntryPoint": true
  },
  "tooling": {
    "defaultNamespace": "MyWebApp"
  },

  "dependencies": {
    "EntityFramework.Commands": "7.0.0-rc1-final",
    "EntityFramework.SQLite": "7.0.0-rc1-final",
    "EntityFramework.MicrosoftSqlServer": "7.0.0-rc1-final",
    "Microsoft.AspNet.Authentication.Cookies": "1.0.0-rc1-final",
    "Microsoft.AspNet.Diagnostics.Entity": "7.0.0-rc1-final",
    "Microsoft.AspNet.Identity.EntityFramework": "3.0.0-rc1-final",
    "Microsoft.AspNet.IISPlatformHandler": "1.0.0-rc1-final",
    "Microsoft.AspNet.Mvc": "6.0.0-rc1-final",
    "Microsoft.AspNet.Mvc.TagHelpers": "6.0.0-rc1-final",
    "Microsoft.AspNet.Server.Kestrel": "1.0.0-rc1-final",
    "Microsoft.AspNet.StaticFiles": "1.0.0-rc1-final",
    "Microsoft.AspNet.Tooling.Razor": "1.0.0-rc1-final",
    "Microsoft.Dnx.Runtime":"1.0.0-rc1-final",
    "Microsoft.Extensions.CodeGenerators.Mvc": "1.0.0-rc1-final",
    "Microsoft.Extensions.Configuration.FileProviderExtensions" : "1.0.0-rc1-final",
    "Microsoft.Extensions.Configuration.Json": "1.0.0-rc1-final",
    "Microsoft.Extensions.Configuration.UserSecrets": "1.0.0-rc1-final",
    "Microsoft.Extensions.Logging": "1.0.0-rc1-final",
    "Microsoft.Extensions.Logging.Console": "1.0.0-rc1-final",
    "Microsoft.Extensions.Logging.Debug": "1.0.0-rc1-final"
  },

  "commands": {
    "web": "Microsoft.AspNet.Server.Kestrel",
    "ef": "EntityFramework.Commands"
  },

  "frameworks": {
    "dnx451": { },
    "dnxcore50": { }
  },

  "exclude": [
    "wwwroot",
    "node_modules",
    "bower_components"
  ],
  "publishExclude": [
    "**.user",
    "**.vspscc"
  ],
  "scripts": {
    "prepublish": [
      "npm install",
      "bower install",
      "grunt default"
    ]
  }
}
